%YAML 1.1
%TAG !u! tag:unity3d.com,2011:
--- !u!687078895 &4343727234628468602
SpriteAtlas:
  m_ObjectHideFlags: 0
  m_CorrespondingSourceObject: {fileID: 0}
  m_PrefabInstance: {fileID: 0}
  m_PrefabAsset: {fileID: 0}
  m_Name: Textures
  m_EditorData:
    serializedVersion: 2
    textureSettings:
      serializedVersion: 2
      anisoLevel: 1
      compressionQuality: 50
      maxTextureSize: 2048
      textureCompression: 0
      filterMode: 1
      generateMipMaps: 0
      readable: 0
      crunchedCompression: 0
      sRGB: 1
    platformSettings: []
    packingSettings:
      serializedVersion: 2
      padding: 4
      blockOffset: 1
      allowAlphaSplitting: 0
      enableRotation: 1
      enableTightPacking: 1
    variantMultiplier: 1
    packables:
    - {fileID: 102900000, guid: f338af92fca604c2da84d2eb0b5e402a, type: 3}
    totalSpriteSurfaceArea: 1310149
    bindAsDefault: 1
  m_MasterAtlas: {fileID: 0}
  m_PackedSprites:
  - {fileID: 21300000, guid: df5ea2c0dc71d40bf95869eae8d85b38, type: 3}
  - {fileID: 21300000, guid: 34c57888dc6b1c242aa0a82dd6292e22, type: 3}
  - {fileID: 21300000, guid: 91a839ace5c646547819262ddba00583, type: 3}
  - {fileID: 21300000, guid: 4dfe40fe2003d4b80b01c2a71f5a9768, type: 3}
  - {fileID: 21300000, guid: bbb5330fa539ba446a1178d8b8c74a9e, type: 3}
  - {fileID: 21300000, guid: 6d611f9fb250ad54eb2efe26d6615179, type: 3}
  m_PackedSpriteNamesToIndex:
  - finger
  - schuriken-02
  - schuriken-04
  - traditional-japanese-wallpaper-25
  - schuriken-01
  - schuriken-03
  m_Tag: Textures
  m_IsVariant: 0
